[gd_scene load_steps=2 format=2]

[ext_resource path="res://fonts/vogue_font_button.tres" type="DynamicFont" id=1]

[node name="BrowseButton" type="Button"]
margin_right = 234.0
margin_bottom = 63.0
focus_mode = 0
custom_fonts/font = ExtResource( 1 )
enabled_focus_mode = 0
text = "Browse"
