[gd_scene load_steps=2 format=2]

[ext_resource path="res://scripts/FBrowser.gd" type="Script" id=1]

[node name="FBrowser" type="FileDialog"]
anchor_right = 1.0
anchor_bottom = 1.0
margin_left = 9.0
margin_top = 133.0
margin_right = -13.0
margin_bottom = -66.0
popup_exclusive = true
window_title = "Open a File"
mode = 0
access = 2
filters = PoolStringArray( "*.escn", "*.dae" )
current_dir = "/media/zamme/e6bd685b-f931-4b61-8806-5cb11171222b/Vilo_Studio/Apps/Development/model_viewer"
current_path = "/media/zamme/e6bd685b-f931-4b61-8806-5cb11171222b/Vilo_Studio/Apps/Development/model_viewer/"
script = ExtResource( 1 )
