[gd_scene load_steps=2 format=2]

[ext_resource path="res://fonts/vogue_font_title.tres" type="DynamicFont" id=1]

[node name="TitleLabel" type="Label"]
margin_right = 361.0
margin_bottom = 139.0
custom_fonts/font = ExtResource( 1 )
text = "Title"
align = 1
valign = 1
autowrap = true
