[gd_resource type="DynamicFont" load_steps=2 format=2]

[ext_resource path="res://fonts/Vogue.ttf" type="DynamicFontData" id=1]

[resource]
resource_name = "TitleFont"
size = 64
font_data = ExtResource( 1 )
